%YAML 1.1
%TAG !u! tag:unity3d.com,2011:
--- !u!162 &1
EditorUserSettings:
  m_ObjectHideFlags: 0
  serializedVersion: 4
  m_ConfigSettings:
    RecentlyUsedSceneGuid-0:
      value: 5603055355045f585f5e0a7a48265e444f4f41727929256328791c31b6e66d3c
      flags: 0
    RecentlyUsedSceneGuid-1:
      value: 530101545d0c0a5a5f575e7343740b444e15197f292c256028784c65b1e66039
      flags: 0
    RecentlyUsedSceneGuid-2:
      value: 5453035403000c0f545e5b7040215a4446161e792a7924672f7a1860b5e3326c
      flags: 0
    RecentlyUsedSceneGuid-3:
      value: 0754005e55065f0d55080d7549200a44104f417f297f72647e7c1b61b0b0643a
      flags: 0
    RecentlyUsedSceneGuid-4:
      value: 5607025655570d085c0d582611220f441216402f2a7974657e701b30b0e5373d
      flags: 0
    RecentlyUsedSceneGuid-5:
      value: 05500551015750085f59097313770744444f197f282c71697a7a4864bbb5356a
      flags: 0
    RecentlyUsedSceneGuid-6:
      value: 5b57575155075a035b0f557242730b4414161b292d2b75692e7e4f66bbb2636f
      flags: 0
    RecentlyUsedSceneGuid-7:
      value: 020404555d00500a0e5e0d2649750844424f1c7d282c7e642b7c4867b3b66d3d
      flags: 0
    RecentlyUsedSceneGuid-8:
      value: 5004040203045c5e0e0f5973417a5d44154e4d792f7d75637f714d31b1e2363a
      flags: 0
    RecentlyUsedSceneGuid-9:
      value: 545350555703580c0c585871407b0d44444e1b73752e20347f701f37e7b26460
      flags: 0
    UnityEditor.ShaderGraph.Blackboard:
      value: 18135939215a0a5004000b0e15254b524c030a3f2964643d120d1230e9e93a3fd6e826abbd2e2d293c4ead313b08042de6030a0afa240c0d020be94c4baf5e435d8715fa32c70d15d11612dacc11fee5d3c5d1fe9ab1b58b908fecb0f9cfddf1eff4e7a1b1eae482f0fdafe2e1928b86d888ed919e938797a7cf
      flags: 0
    UnityEditor.ShaderGraph.FloatingWindowsLayout2:
      value: 181344140043005e1a220d3b1f364b524c0c5a27130c293326201334cee5322ca0bd30e8eb293a707b0fd0180b3d0a36fc0d3d04e649500d1002ee0b5dbd1d2c27c00ad113cb1e10e41f1addc80993b98d9884a69ae6d8f0d1cda9e8fbfefaf9f9dea3fdb9ade882f0f7b0e1e380cafbf2c3adc18e9cd285a2908b82ec869c8395949c9483d68a8e97ddbd90bf
      flags: 0
    UnityEditor.ShaderGraph.InspectorWindow:
      value: 18135939215a0a5004000b0e15254b524c1119263f2d6a722016393ce1eb3d36e5d339f9a5602b2e2c07a37e0901373ae01e0008f707250d171df81a53a5405d41895ac825e0100ec20313c0d91cddccd3d0c7efcca9bd80908fecb0f9cfddf1eff4e7a1b1eae482f0fcaee1e1928b86d888ed969b938797a7cf
      flags: 0
    vcSharedLogLevel:
      value: 0d5e400f0650
      flags: 0
  m_VCAutomaticAdd: 1
  m_VCDebugCom: 0
  m_VCDebugCmd: 0
  m_VCDebugOut: 0
  m_SemanticMergeMode: 2
  m_DesiredImportWorkerCount: 3
  m_StandbyImportWorkerCount: 2
  m_IdleImportWorkerShutdownDelay: 60000
  m_VCShowFailedCheckout: 1
  m_VCOverwriteFailedCheckoutAssets: 1
  m_VCProjectOverlayIcons: 1
  m_VCHierarchyOverlayIcons: 1
  m_VCOtherOverlayIcons: 1
  m_VCAllowAsyncUpdate: 1
  m_ArtifactGarbageCollection: 1
